Crawling started    http://www.100bumag.ru/
===============================================================================
Depth : 1
===============================================================================
[1]------------------------------------------
Checking Link: http://www.100bumag.ru/ ...
	Content type: text/html
	Crawling...
	Downloading..
	Downloading completed
	Harvesting links...
harvestLinks
Externals count: 39
	Harvesting links completed
	Crawling completed - 36 links found
===============================================================================
Depth : 0
===============================================================================
[1]------------------------------------------
Checking Link: http://www.100bumag.ru//paper_calendars.html ...
	Content type: text/html
	Crawling...
	Downloading..
	Downloading completed
	Harvesting links...
harvestLinks
Externals count: 63
	Harvesting links completed
	Crawling completed - 59 links found
[2]------------------------------------------
Checking Link: http://www.100bumag.ru//cancel.html ...
	Content type: text/html
	Crawling...
	Downloading..
	Downloading completed
	Harvesting links...
harvestLinks
Externals count: 14
	Harvesting links completed
	Crawling completed - 10 links found
[3]------------------------------------------
Checking Link: http://www.100bumag.ru//index.html ...
	Content type: text/html
	Crawling...
	Downloading..
	Downloading completed
	Harvesting links...
harvestLinks
Externals count: 39
	Harvesting links completed
	Crawling completed - 33 links found
[4]------------------------------------------
Checking Link: http://www.100bumag.ru//color_lenta.html ...
	Content type: text/html
	Crawling...
	Downloading..
	Downloading completed
	Harvesting links...
harvestLinks
Externals count: 29
	Harvesting links completed
	Crawling completed - 22 links found
[5]------------------------------------------
Checking Link: http://www.100bumag.ru//paper_test.html ...
	Content type: text/html
	Crawling...
	Downloading..
	Downloading completed
	Harvesting links...
harvestLinks
Externals count: 63
	Harvesting links completed
	Crawling completed - 56 links found
[6]------------------------------------------
Checking Link: http://www.100bumag.ru//paper_color.html ...
	Content type: text/html
	Crawling...
	Downloading..
	Downloading completed
	Harvesting links...
harvestLinks
Externals count: 63
	Harvesting links completed
	Crawling completed - 55 links found
[7]------------------------------------------
Checking Link: http://www.100bumag.ru//paper_ink.html ...
	Content type: text/html
	Crawling...
	Downloading..
	Downloading completed
	Harvesting links...
harvestLinks
Externals count: 63
	Harvesting links completed
	Crawling completed - 54 links found
[8]------------------------------------------
Checking Link: http://www.100bumag.ru//0937041.html ...
	Content type: text/html
	Crawling...
	Downloading..
	Downloading completed
	Harvesting links...
harvestLinks
Externals count: 70
	Harvesting links completed
	Crawling completed - 65 links found
[9]------------------------------------------
Checking Link: http://www.100bumag.ru//paper_self.html ...
	Content type: text/html
	Crawling...
	Downloading..
	Downloading completed
	Harvesting links...
harvestLinks
Externals count: 63
	Harvesting links completed
	Crawling completed - 53 links found
[10]------------------------------------------
Checking Link: http://www.100bumag.ru//cart_fax.html ...
	Content type: text/html
	Crawling...
	Downloading..
	Downloading completed
	Harvesting links...
harvestLinks
Externals count: 29
	Harvesting links completed
	Crawling completed - 21 links found
[11]------------------------------------------
Checking Link: http://www.100bumag.ru//paper_thermo.html ...
	Content type: text/html
	Crawling...
	Downloading..
	Downloading completed
	Harvesting links...
harvestLinks
Externals count: 63
	Harvesting links completed
	Crawling completed - 52 links found
[12]------------------------------------------
Checking Link: http://www.100bumag.ru//paper_check.html ...
	Content type: text/html
	Crawling...
	Downloading..
	Downloading completed
	Harvesting links...
harvestLinks
Externals count: 63
	Harvesting links completed
	Crawling completed - 51 links found
[13]------------------------------------------
Checking Link: http://www.100bumag.ru//paper_sublimation.html ...
	Content type: text/html
	Crawling...
	Downloading..
	Downloading completed
	Harvesting links...
harvestLinks
Externals count: 63
	Harvesting links completed
	Crawling completed - 50 links found
[14]------------------------------------------
Checking Link: http://www.100bumag.ru//lomond.html ...
	Content type: text/html
	Crawling...
	Downloading..
	Downloading completed
	Harvesting links...
harvestLinks
Externals count: 70
	Harvesting links completed
	Crawling completed - 64 links found
[15]------------------------------------------
Checking Link: http://www.100bumag.ru//paper_wide_solvent.html ...
	Content type: text/html
	Crawling...
	Downloading..
	Downloading completed
	Harvesting links...
harvestLinks
Externals count: 63
	Harvesting links completed
	Crawling completed - 49 links found
[16]------------------------------------------
Checking Link: http://www.100bumag.ru//contacts.html ...
	Content type: text/html
	Crawling...
	Downloading..
	Downloading completed
	Harvesting links...
harvestLinks
Externals count: 14
	Harvesting links completed
	Crawling completed - 8 links found
[17]------------------------------------------
Checking Link: http://www.100bumag.ru/cartriges.html ...
	Content type: text/html
	Crawling...
	Downloading..
	Downloading completed
	Harvesting links...
harvestLinks
Externals count: 28
	Harvesting links completed
	Crawling completed - 20 links found
[18]------------------------------------------
Checking Link: http://www.100bumag.ru//paper.html ...
	Content type: text/html
	Crawling...
	Downloading..
	Downloading completed
	Harvesting links...
harvestLinks
Externals count: 63
	Harvesting links completed
	Crawling completed - 47 links found
[19]------------------------------------------
Checking Link: http://www.100bumag.ru//film_laminir.html ...
	Content type: text/html
	Crawling...
	Downloading..
	Downloading completed
	Harvesting links...
harvestLinks
Externals count: 63
	Harvesting links completed
	Crawling completed - 46 links found
[20]------------------------------------------
Checking Link: http://www.100bumag.ru//cart_matr.html ...
	Content type: text/html
	Crawling...
	Downloading..
	Downloading completed
	Harvesting links...
harvestLinks
Externals count: 28
	Harvesting links completed
	Crawling completed - 18 links found
[21]------------------------------------------
Checking Link: http://www.100bumag.ru//mailto:100bumag@100bumag.ru ...
Skipped Error Url: http://www.100bumag.ru//mailto:100bumag@100bumag.ru
[22]------------------------------------------
Checking Link: http://www.100bumag.ru//paper_laser.html ...
	Content type: text/html
	Crawling...
	Downloading..
	Downloading completed
	Harvesting links...
harvestLinks
Externals count: 63
	Harvesting links completed
	Crawling completed - 45 links found
[23]------------------------------------------
Checking Link: http://www.100bumag.ru//cartridge_laser.html ...
	Content type: text/html
	Crawling...
	Downloading..
	Downloading completed
	Harvesting links...
harvestLinks
Externals count: 28
	Harvesting links completed
	Crawling completed - 17 links found
[24]------------------------------------------
Checking Link: http://www.100bumag.ru//about.html ...
	Content type: text/html
	Crawling...
	Downloading..
	Downloading completed
	Harvesting links...
harvestLinks
Externals count: 38
	Harvesting links completed
	Crawling completed - 30 links found
[25]------------------------------------------
Checking Link: http://www.100bumag.ru//mailto:serg@100bumag.ru ...
Skipped Error Url: http://www.100bumag.ru//mailto:serg@100bumag.ru
[26]------------------------------------------
Checking Link: http://www.100bumag.ru//ink_lomond.html ...
	Content type: text/html
	Crawling...
	Downloading..
	Downloading completed
	Harvesting links...
harvestLinks
Externals count: 28
	Harvesting links completed
	Crawling completed - 15 links found
[27]------------------------------------------
Checking Link: http://www.100bumag.ru//paper_plotter.html ...
	Content type: text/html
	Crawling...
	Downloading..
	Downloading completed
	Harvesting links...
harvestLinks
Externals count: 63
	Harvesting links completed
	Crawling completed - 43 links found
[28]------------------------------------------
Checking Link: http://www.100bumag.ru//toner.html ...
	Content type: text/html
	Crawling...
	Downloading..
	Downloading completed
	Harvesting links...
harvestLinks
Externals count: 28
	Harvesting links completed
	Crawling completed - 14 links found
[29]------------------------------------------
Checking Link: http://www.100bumag.ru//may.html ...
	Content type: text/html
	Crawling...
	Downloading..
	Downloading completed
	Harvesting links...
harvestLinks
Externals count: 70
	Harvesting links completed
	Crawling completed - 59 links found
[30]------------------------------------------
Checking Link: http://www.100bumag.ru//paper_office.html ...
	Content type: text/html
	Crawling...
	Downloading..
	Downloading completed
	Harvesting links...
harvestLinks
Externals count: 63
	Harvesting links completed
	Crawling completed - 42 links found
[31]------------------------------------------
Checking Link: http://www.100bumag.ru//film_lamin.html ...
	Content type: text/html
	Crawling...
	Downloading..
	Downloading completed
	Harvesting links...
harvestLinks
Externals count: 63
	Harvesting links completed
	Crawling completed - 41 links found
[32]------------------------------------------
Checking Link: http://www.100bumag.ru// ...
	Content type: text/html
	Crawling...
	Downloading..
	Downloading completed
	Harvesting links...
harvestLinks
Externals count: 39
	Harvesting links completed
	Crawling completed - 6 links found
[33]------------------------------------------
Checking Link: http://www.100bumag.ru//cartriges.html ...
	Content type: text/html
	Crawling...
	Downloading..
	Downloading completed
	Harvesting links...
harvestLinks
Externals count: 28
	Harvesting links completed
	Crawling completed - 12 links found
[34]------------------------------------------
Checking Link: http://www.100bumag.ru//cart_cass.html ...
	Content type: text/html
	Crawling...
	Downloading..
	Downloading completed
	Harvesting links...
harvestLinks
Externals count: 28
	Harvesting links completed
	Crawling completed - 11 links found
[35]------------------------------------------
Checking Link: http://www.100bumag.ru//news.html ...
	Content type: text/html
	Crawling...
	Downloading..
	Downloading completed
	Harvesting links...
harvestLinks
Externals count: 70
	Harvesting links completed
	Crawling completed - 57 links found
[36]------------------------------------------
Checking Link: http://www.100bumag.ru//cart_str.html ...
	Content type: text/html
	Crawling...
	Downloading..
	Downloading completed
	Harvesting links...
harvestLinks
Externals count: 28
	Harvesting links completed
	Crawling completed - 10 links found
Crawling started    http://www.100ms.ru/
===============================================================================
Depth : 1
===============================================================================
[1]------------------------------------------
Checking Link: http://www.100ms.ru/ ...
Skipped Error Url: http://www.100ms.ru/
Crawling started    http://www.100telegek.ru/
===============================================================================
Depth : 1
===============================================================================
[1]------------------------------------------
Checking Link: http://www.100telegek.ru/ ...
Skipped Error Url: http://www.100telegek.ru/
Crawling started    http://www.100vizitok.ru/
===============================================================================
Depth : 1
===============================================================================
[1]------------------------------------------
Checking Link: http://www.100vizitok.ru/ ...
	Content type: text/html
	Crawling...
	Downloading..
	Downloading completed
	Harvesting links...
harvestLinks
Externals count: 63
	Harvesting links completed
	Crawling completed - 59 links found
===============================================================================
Depth : 0
===============================================================================
[1]------------------------------------------
Checking Link: http://www.100vizitok.ru//bumaga_fedrigoni/ ...
	Content type: text/html
	Crawling...
	Downloading..
	Downloading completed
	Harvesting links...
harvestLinks
Externals count: 75
	Harvesting links completed
	Crawling completed - 71 links found
[2]------------------------------------------
Checking Link: http://www.100vizitok.ru//Colorplan/ ...
	Content type: text/html
	Crawling...
	Downloading..
	Downloading completed
	Harvesting links...
harvestLinks
Externals count: 62
	Harvesting links completed
	Crawling completed - 57 links found
[3]------------------------------------------
Checking Link: http://www.100vizitok.ru//novogodnie_otkritki/ ...
	Content type: text/html
	Crawling...
	Downloading..
	Downloading completed
	Harvesting links...
harvestLinks
Externals count: 62
	Harvesting links completed
	Crawling completed - 71 links found
[4]------------------------------------------
Checking Link: http://www.100vizitok.ru//eco_vizitki/ ...
	Content type: text/html
	Crawling...
	Downloading..
	Downloading completed
	Harvesting links...
harvestLinks
Externals count: 63
	Harvesting links completed
	Crawling completed - 57 links found
[5]------------------------------------------
Checking Link: http://www.100vizitok.ru//original/ ...
	Content type: text/html
	Crawling...
	Downloading..
	Downloading completed
	Harvesting links...
harvestLinks
Externals count: 85
	Harvesting links completed
	Crawling completed - 77 links found
[6]------------------------------------------
Checking Link: http://www.100vizitok.ru//aromats/ ...
	Content type: text/html
	Crawling...
	Downloading..
	Downloading completed
	Harvesting links...
harvestLinks
Externals count: 74
	Harvesting links completed
	Crawling completed - 64 links found
Crawling started    http://www.100bumag.ru/
===============================================================================
Depth : 1
===============================================================================
[1]------------------------------------------
Checking Link: http://www.100bumag.ru/ ...
	Content type: text/html
	Crawling...
	Downloading..
	Downloading completed
	Harvesting links...
harvestLinks
Externals count: 39
	Harvesting links completed
	Crawling completed - 36 links found
===============================================================================
Depth : 0
===============================================================================
[1]------------------------------------------
Checking Link: http://www.100bumag.ru//paper_calendars.html ...
	Content type: text/html
	Crawling...
	Downloading..
	Downloading completed
	Harvesting links...
harvestLinks
Externals count: 63
	Harvesting links completed
	Crawling completed - 59 links found
[2]------------------------------------------
Checking Link: http://www.100bumag.ru//cancel.html ...
	Content type: text/html
	Crawling...
	Downloading..
	Downloading completed
	Harvesting links...
harvestLinks
Externals count: 14
	Harvesting links completed
	Crawling completed - 10 links found
[3]------------------------------------------
Checking Link: http://www.100bumag.ru//index.html ...
	Content type: text/html
	Crawling...
	Downloading..
	Downloading completed
	Harvesting links...
harvestLinks
Externals count: 39
	Harvesting links completed
	Crawling completed - 33 links found
[4]------------------------------------------
Checking Link: http://www.100bumag.ru//color_lenta.html ...
	Content type: text/html
	Crawling...
	Downloading..
	Downloading completed
	Harvesting links...
harvestLinks
Externals count: 29
	Harvesting links completed
	Crawling completed - 22 links found
[5]------------------------------------------
Checking Link: http://www.100bumag.ru//paper_test.html ...
	Content type: text/html
	Crawling...
	Downloading..
	Downloading completed
	Harvesting links...
harvestLinks
Externals count: 63
	Harvesting links completed
	Crawling completed - 56 links found
[6]------------------------------------------
Checking Link: http://www.100bumag.ru//paper_color.html ...
	Content type: text/html
	Crawling...
	Downloading..
	Downloading completed
	Harvesting links...
harvestLinks
Externals count: 63
	Harvesting links completed
	Crawling completed - 55 links found
[7]------------------------------------------
Checking Link: http://www.100bumag.ru//paper_ink.html ...
	Content type: text/html
	Crawling...
	Downloading..
	Downloading completed
	Harvesting links...
harvestLinks
Externals count: 63
	Harvesting links completed
	Crawling completed - 54 links found
[8]------------------------------------------
Checking Link: http://www.100bumag.ru//0937041.html ...
	Content type: text/html
	Crawling...
	Downloading..
	Downloading completed
	Harvesting links...
harvestLinks
Externals count: 70
	Harvesting links completed
	Crawling completed - 65 links found
[9]------------------------------------------
Checking Link: http://www.100bumag.ru//paper_self.html ...
	Content type: text/html
	Crawling...
	Downloading..
	Downloading completed
	Harvesting links...
harvestLinks
Externals count: 63
	Harvesting links completed
	Crawling completed - 53 links found
[10]------------------------------------------
Checking Link: http://www.100bumag.ru//cart_fax.html ...
	Content type: text/html
	Crawling...
	Downloading..
	Downloading completed
	Harvesting links...
harvestLinks
Externals count: 29
	Harvesting links completed
	Crawling completed - 21 links found
[11]------------------------------------------
Checking Link: http://www.100bumag.ru//paper_thermo.html ...
	Content type: text/html
	Crawling...
	Downloading..
	Downloading completed
	Harvesting links...
harvestLinks
Externals count: 63
	Harvesting links completed
	Crawling completed - 52 links found
[12]------------------------------------------
Checking Link: http://www.100bumag.ru//paper_check.html ...
	Content type: text/html
	Crawling...
	Downloading..
	Downloading completed
	Harvesting links...
harvestLinks
Externals count: 63
	Harvesting links completed
	Crawling completed - 51 links found
[13]------------------------------------------
Checking Link: http://www.100bumag.ru//paper_sublimation.html ...
	Content type: text/html
	Crawling...
	Downloading..
	Downloading completed
	Harvesting links...
harvestLinks
Externals count: 63
	Harvesting links completed
	Crawling completed - 50 links found
[14]------------------------------------------
Checking Link: http://www.100bumag.ru//lomond.html ...
	Content type: text/html
	Crawling...
	Downloading..
	Downloading completed
	Harvesting links...
harvestLinks
Externals count: 70
	Harvesting links completed
	Crawling completed - 64 links found
[15]------------------------------------------
Checking Link: http://www.100bumag.ru//paper_wide_solvent.html ...
	Content type: text/html
	Crawling...
	Downloading..
	Downloading completed
	Harvesting links...
harvestLinks
Externals count: 63
	Harvesting links completed
	Crawling completed - 49 links found
[16]------------------------------------------
Checking Link: http://www.100bumag.ru//contacts.html ...
	Content type: text/html
	Crawling...
	Downloading..
	Downloading completed
	Harvesting links...
harvestLinks
Externals count: 14
	Harvesting links completed
	Crawling completed - 8 links found
[17]------------------------------------------
Checking Link: http://www.100bumag.ru/cartriges.html ...
	Content type: text/html
	Crawling...
	Downloading..
	Downloading completed
	Harvesting links...
harvestLinks
Externals count: 28
	Harvesting links completed
	Crawling completed - 20 links found
[18]------------------------------------------
Checking Link: http://www.100bumag.ru//paper.html ...
	Content type: text/html
	Crawling...
	Downloading..
	Downloading completed
	Harvesting links...
harvestLinks
Externals count: 63
	Harvesting links completed
	Crawling completed - 47 links found
[19]------------------------------------------
Checking Link: http://www.100bumag.ru//film_laminir.html ...
	Content type: text/html
	Crawling...
	Downloading..
	Downloading completed
	Harvesting links...
harvestLinks
Externals count: 63
	Harvesting links completed
	Crawling completed - 46 links found
[20]------------------------------------------
Checking Link: http://www.100bumag.ru//cart_matr.html ...
	Content type: text/html
	Crawling...
	Downloading..
	Downloading completed
	Harvesting links...
harvestLinks
Externals count: 28
	Harvesting links completed
	Crawling completed - 18 links found
[21]------------------------------------------
Checking Link: http://www.100bumag.ru//mailto:100bumag@100bumag.ru ...
Skipped Error Url: http://www.100bumag.ru//mailto:100bumag@100bumag.ru
[22]------------------------------------------
Checking Link: http://www.100bumag.ru//paper_laser.html ...
	Content type: text/html
	Crawling...
	Downloading..
	Downloading completed
	Harvesting links...
harvestLinks
Externals count: 63
	Harvesting links completed
	Crawling completed - 45 links found
[23]------------------------------------------
Checking Link: http://www.100bumag.ru//cartridge_laser.html ...
	Content type: text/html
	Crawling...
	Downloading..
	Downloading completed
	Harvesting links...
harvestLinks
Externals count: 28
	Harvesting links completed
	Crawling completed - 17 links found
[24]------------------------------------------
Checking Link: http://www.100bumag.ru//about.html ...
	Content type: text/html
	Crawling...
	Downloading..
	Downloading completed
	Harvesting links...
harvestLinks
Externals count: 38
	Harvesting links completed
	Crawling completed - 30 links found
[25]------------------------------------------
Checking Link: http://www.100bumag.ru//mailto:serg@100bumag.ru ...
Skipped Error Url: http://www.100bumag.ru//mailto:serg@100bumag.ru
[26]------------------------------------------
Checking Link: http://www.100bumag.ru//ink_lomond.html ...
	Content type: text/html
	Crawling...
	Downloading..
	Downloading completed
	Harvesting links...
harvestLinks
Externals count: 28
	Harvesting links completed
	Crawling completed - 15 links found
[27]------------------------------------------
Checking Link: http://www.100bumag.ru//paper_plotter.html ...
	Content type: text/html
	Crawling...
	Downloading..
	Downloading completed
	Harvesting links...
harvestLinks
Externals count: 63
	Harvesting links completed
	Crawling completed - 43 links found
[28]------------------------------------------
Checking Link: http://www.100bumag.ru//toner.html ...
	Content type: text/html
	Crawling...
	Downloading..
	Downloading completed
	Harvesting links...
harvestLinks
Externals count: 28
	Harvesting links completed
	Crawling completed - 14 links found
[29]------------------------------------------
Checking Link: http://www.100bumag.ru//may.html ...
	Content type: text/html
	Crawling...
	Downloading..
	Downloading completed
	Harvesting links...
harvestLinks
Externals count: 70
	Harvesting links completed
	Crawling completed - 59 links found
[30]------------------------------------------
Checking Link: http://www.100bumag.ru//paper_office.html ...
	Content type: text/html
	Crawling...
	Downloading..
	Downloading completed
	Harvesting links...
harvestLinks
Externals count: 63
	Harvesting links completed
	Crawling completed - 42 links found
[31]------------------------------------------
Checking Link: http://www.100bumag.ru//film_lamin.html ...
	Content type: text/html
	Crawling...
	Downloading..
	Downloading completed
	Harvesting links...
harvestLinks
Externals count: 63
	Harvesting links completed
	Crawling completed - 41 links found
[32]------------------------------------------
Checking Link: http://www.100bumag.ru// ...
	Content type: text/html
	Crawling...
	Downloading..
	Downloading completed
	Harvesting links...
harvestLinks
Externals count: 39
	Harvesting links completed
	Crawling completed - 6 links found
[33]------------------------------------------
Checking Link: http://www.100bumag.ru//cartriges.html ...
	Content type: text/html
	Crawling...
	Downloading..
	Downloading completed
	Harvesting links...
harvestLinks
Externals count: 28
	Harvesting links completed
	Crawling completed - 12 links found
[34]------------------------------------------
Checking Link: http://www.100bumag.ru//cart_cass.html ...
	Content type: text/html
	Crawling...
	Downloading..
	Downloading completed
	Harvesting links...
harvestLinks
Externals count: 28
	Harvesting links completed
	Crawling completed - 11 links found
[35]------------------------------------------
Checking Link: http://www.100bumag.ru//news.html ...
	Content type: text/html
	Crawling...
	Downloading..
	Downloading completed
	Harvesting links...
harvestLinks
Externals count: 70
	Harvesting links completed
	Crawling completed - 57 links found
[36]------------------------------------------
Checking Link: http://www.100bumag.ru//cart_str.html ...
	Content type: text/html
	Crawling...
	Downloading..
	Downloading completed
	Harvesting links...
harvestLinks
Externals count: 28
	Harvesting links completed
	Crawling completed - 10 links found
Crawling started    http://www.100ms.ru/
===============================================================================
Depth : 1
===============================================================================
[1]------------------------------------------
Checking Link: http://www.100ms.ru/ ...
Skipped Error Url: http://www.100ms.ru/
Crawling started    http://www.100telegek.ru/
===============================================================================
Depth : 1
===============================================================================
[1]------------------------------------------
Checking Link: http://www.100telegek.ru/ ...
Skipped Error Url: http://www.100telegek.ru/
Crawling started    http://www.100vizitok.ru/
===============================================================================
Depth : 1
===============================================================================
[1]------------------------------------------
Checking Link: http://www.100vizitok.ru/ ...
	Content type: text/html
	Crawling...
	Downloading..
	Downloading completed
	Harvesting links...
harvestLinks
Externals count: 63
	Harvesting links completed
	Crawling completed - 59 links found
===============================================================================
Depth : 0
===============================================================================
[1]------------------------------------------
Checking Link: http://www.100vizitok.ru//bumaga_fedrigoni/ ...
	Content type: text/html
	Crawling...
	Downloading..
	Downloading completed
	Harvesting links...
harvestLinks
Externals count: 75
	Harvesting links completed
	Crawling completed - 71 links found
[2]------------------------------------------
Checking Link: http://www.100vizitok.ru//Colorplan/ ...
	Content type: text/html
	Crawling...
	Downloading..
	Downloading completed
	Harvesting links...
harvestLinks
Externals count: 62
	Harvesting links completed
	Crawling completed - 57 links found
[3]------------------------------------------
Checking Link: http://www.100vizitok.ru//novogodnie_otkritki/ ...
	Content type: text/html
	Crawling...
	Downloading..
	Downloading completed
	Harvesting links...
harvestLinks
Externals count: 62
	Harvesting links completed
	Crawling completed - 71 links found
[4]------------------------------------------
Checking Link: http://www.100vizitok.ru//eco_vizitki/ ...
	Content type: text/html
	Crawling...
	Downloading..
	Downloading completed
	Harvesting links...
harvestLinks
Externals count: 63
	Harvesting links completed
	Crawling completed - 57 links found
[5]------------------------------------------
Checking Link: http://www.100vizitok.ru//original/ ...
	Content type: text/html
	Crawling...
	Downloading..
	Downloading completed
	Harvesting links...
harvestLinks
Externals count: 85
	Harvesting links completed
	Crawling completed - 77 links found
[6]------------------------------------------
Checking Link: http://www.100vizitok.ru//aromats/ ...
	Content type: text/html
	Crawling...
	Downloading..
	Downloading completed
	Harvesting links...
harvestLinks
Externals count: 74
	Harvesting links completed
	Crawling completed - 64 links found
[7]------------------------------------------
Crawling started    http://www.100bumag.ru/
===============================================================================
Depth : 1
===============================================================================
[1]------------------------------------------
Checking Link: http://www.100bumag.ru/ ...
	Content type: text/html
	Crawling...
	Downloading..
	Downloading completed
	Harvesting links...
harvestLinks
Externals count: 39
	Harvesting links completed
	Crawling completed - 36 links found
===============================================================================
Depth : 0
===============================================================================
[1]------------------------------------------
Checking Link: http://www.100bumag.ru//paper_calendars.html ...
	Content type: text/html
	Crawling...
	Downloading..
	Downloading completed
	Harvesting links...
harvestLinks
Externals count: 63
	Harvesting links completed
	Crawling completed - 59 links found
[2]------------------------------------------
Checking Link: http://www.100bumag.ru//cancel.html ...
	Content type: text/html
	Crawling...
	Downloading..
	Downloading completed
	Harvesting links...
harvestLinks
Externals count: 14
	Harvesting links completed
	Crawling completed - 10 links found
[3]------------------------------------------
Checking Link: http://www.100bumag.ru//index.html ...
	Content type: text/html
	Crawling...
	Downloading..
	Downloading completed
	Harvesting links...
harvestLinks
Externals count: 39
	Harvesting links completed
	Crawling completed - 33 links found
[4]------------------------------------------
Checking Link: http://www.100bumag.ru//color_lenta.html ...
	Content type: text/html
	Crawling...
	Downloading..
	Downloading completed
	Harvesting links...
harvestLinks
Externals count: 29
	Harvesting links completed
	Crawling completed - 22 links found
[5]------------------------------------------
Checking Link: http://www.100bumag.ru//paper_test.html ...
	Content type: text/html
	Crawling...
	Downloading..
	Downloading completed
	Harvesting links...
harvestLinks
Externals count: 63
	Harvesting links completed
	Crawling completed - 56 links found
[6]------------------------------------------
Checking Link: http://www.100bumag.ru//paper_color.html ...
	Content type: text/html
	Crawling...
	Downloading..
	Downloading completed
	Harvesting links...
harvestLinks
Externals count: 63
	Harvesting links completed
	Crawling completed - 55 links found
[7]------------------------------------------
Checking Link: http://www.100bumag.ru//paper_ink.html ...
	Content type: text/html
	Crawling...
	Downloading..
	Downloading completed
	Harvesting links...
harvestLinks
Externals count: 63
	Harvesting links completed
	Crawling completed - 54 links found
[8]------------------------------------------
Checking Link: http://www.100bumag.ru//0937041.html ...
	Content type: text/html
	Crawling...
	Downloading..
	Downloading completed
	Harvesting links...
harvestLinks
Externals count: 70
	Harvesting links completed
	Crawling completed - 65 links found
[9]------------------------------------------
Checking Link: http://www.100bumag.ru//paper_self.html ...
	Content type: text/html
	Crawling...
	Downloading..
	Downloading completed
	Harvesting links...
harvestLinks
Externals count: 63
	Harvesting links completed
	Crawling completed - 53 links found
[10]------------------------------------------
Checking Link: http://www.100bumag.ru//cart_fax.html ...
	Content type: text/html
	Crawling...
	Downloading..
	Downloading completed
	Harvesting links...
harvestLinks
Externals count: 29
	Harvesting links completed
	Crawling completed - 21 links found
[11]------------------------------------------
Checking Link: http://www.100bumag.ru//paper_thermo.html ...
	Content type: text/html
	Crawling...
	Downloading..
	Downloading completed
	Harvesting links...
harvestLinks
Externals count: 63
	Harvesting links completed
	Crawling completed - 52 links found
[12]------------------------------------------
Checking Link: http://www.100bumag.ru//paper_check.html ...
	Content type: text/html
	Crawling...
	Downloading..
	Downloading completed
	Harvesting links...
harvestLinks
Externals count: 63
	Harvesting links completed
	Crawling completed - 51 links found
[13]------------------------------------------
Checking Link: http://www.100bumag.ru//paper_sublimation.html ...
	Content type: text/html
	Crawling...
	Downloading..
	Downloading completed
	Harvesting links...
harvestLinks
Externals count: 63
	Harvesting links completed
	Crawling completed - 50 links found
[14]------------------------------------------
Checking Link: http://www.100bumag.ru//lomond.html ...
	Content type: text/html
	Crawling...
	Downloading..
	Downloading completed
	Harvesting links...
harvestLinks
Externals count: 70
	Harvesting links completed
	Crawling completed - 64 links found
[15]------------------------------------------
Checking Link: http://www.100bumag.ru//paper_wide_solvent.html ...
	Content type: text/html
	Crawling...
	Downloading..
	Downloading completed
	Harvesting links...
harvestLinks
Externals count: 63
	Harvesting links completed
	Crawling completed - 49 links found
[16]------------------------------------------
Checking Link: http://www.100bumag.ru//contacts.html ...
	Content type: text/html
	Crawling...
	Downloading..
	Downloading completed
	Harvesting links...
harvestLinks
Externals count: 14
	Harvesting links completed
	Crawling completed - 8 links found
[17]------------------------------------------
Checking Link: http://www.100bumag.ru/cartriges.html ...
	Content type: text/html
	Crawling...
	Downloading..
	Downloading completed
	Harvesting links...
harvestLinks
Externals count: 28
	Harvesting links completed
	Crawling completed - 20 links found
[18]------------------------------------------
Checking Link: http://www.100bumag.ru//paper.html ...
	Content type: text/html
	Crawling...
	Downloading..
	Downloading completed
	Harvesting links...
harvestLinks
Externals count: 63
	Harvesting links completed
	Crawling completed - 47 links found
[19]------------------------------------------
Checking Link: http://www.100bumag.ru//film_laminir.html ...
	Content type: text/html
	Crawling...
	Downloading..
	Downloading completed
	Harvesting links...
harvestLinks
Externals count: 63
	Harvesting links completed
	Crawling completed - 46 links found
[20]------------------------------------------
Checking Link: http://www.100bumag.ru//cart_matr.html ...
	Content type: text/html
	Crawling...
	Downloading..
	Downloading completed
	Harvesting links...
harvestLinks
Externals count: 28
	Harvesting links completed
	Crawling completed - 18 links found
[21]------------------------------------------
Checking Link: http://www.100bumag.ru//mailto:100bumag@100bumag.ru ...
Skipped Error Url: http://www.100bumag.ru//mailto:100bumag@100bumag.ru
[22]------------------------------------------
Checking Link: http://www.100bumag.ru//paper_laser.html ...
	Content type: text/html
	Crawling...
	Downloading..
	Downloading completed
	Harvesting links...
harvestLinks
Externals count: 63
	Harvesting links completed
	Crawling completed - 45 links found
[23]------------------------------------------
Checking Link: http://www.100bumag.ru//cartridge_laser.html ...
	Content type: text/html
	Crawling...
	Downloading..
	Downloading completed
	Harvesting links...
harvestLinks
Externals count: 28
	Harvesting links completed
	Crawling completed - 17 links found
[24]------------------------------------------
Checking Link: http://www.100bumag.ru//about.html ...
	Content type: text/html
	Crawling...
	Downloading..
	Downloading completed
	Harvesting links...
harvestLinks
Externals count: 38
	Harvesting links completed
	Crawling completed - 30 links found
[25]------------------------------------------
Checking Link: http://www.100bumag.ru//mailto:serg@100bumag.ru ...
Skipped Error Url: http://www.100bumag.ru//mailto:serg@100bumag.ru
[26]------------------------------------------
Checking Link: http://www.100bumag.ru//ink_lomond.html ...
	Content type: text/html
	Crawling...
	Downloading..
	Downloading completed
	Harvesting links...
harvestLinks
Externals count: 28
	Harvesting links completed
	Crawling completed - 15 links found
[27]------------------------------------------
Checking Link: http://www.100bumag.ru//paper_plotter.html ...
	Content type: text/html
	Crawling...
	Downloading..
	Downloading completed
	Harvesting links...
harvestLinks
Externals count: 63
	Harvesting links completed
	Crawling completed - 43 links found
[28]------------------------------------------
Checking Link: http://www.100bumag.ru//toner.html ...
	Content type: text/html
	Crawling...
	Downloading..
	Downloading completed
	Harvesting links...
harvestLinks
Externals count: 28
	Harvesting links completed
	Crawling completed - 14 links found
[29]------------------------------------------
Checking Link: http://www.100bumag.ru//may.html ...
	Content type: text/html
	Crawling...
	Downloading..
	Downloading completed
	Harvesting links...
harvestLinks
Externals count: 70
	Harvesting links completed
	Crawling completed - 59 links found
[30]------------------------------------------
Checking Link: http://www.100bumag.ru//paper_office.html ...
	Content type: text/html
	Crawling...
	Downloading..
	Downloading completed
	Harvesting links...
harvestLinks
Externals count: 63
	Harvesting links completed
	Crawling completed - 42 links found
[31]------------------------------------------
Checking Link: http://www.100bumag.ru//film_lamin.html ...
	Content type: text/html
	Crawling...
	Downloading..
	Downloading completed
	Harvesting links...
harvestLinks
Externals count: 63
	Harvesting links completed
	Crawling completed - 41 links found
[32]------------------------------------------
Checking Link: http://www.100bumag.ru// ...
	Content type: text/html
	Crawling...
	Downloading..
	Downloading completed
	Harvesting links...
harvestLinks
Externals count: 39
	Harvesting links completed
	Crawling completed - 6 links found
[33]------------------------------------------
Checking Link: http://www.100bumag.ru//cartriges.html ...
	Content type: text/html
	Crawling...
	Downloading..
	Downloading completed
	Harvesting links...
harvestLinks
Externals count: 28
	Harvesting links completed
	Crawling completed - 12 links found
[34]------------------------------------------
Checking Link: http://www.100bumag.ru//cart_cass.html ...
	Content type: text/html
	Crawling...
	Downloading..
	Downloading completed
	Harvesting links...
harvestLinks
Externals count: 28
	Harvesting links completed
	Crawling completed - 11 links found
[35]------------------------------------------
Checking Link: http://www.100bumag.ru//news.html ...
	Content type: text/html
	Crawling...
	Downloading..
	Downloading completed
	Harvesting links...
harvestLinks
Externals count: 70
	Harvesting links completed
	Crawling completed - 57 links found
[36]------------------------------------------
Checking Link: http://www.100bumag.ru//cart_str.html ...
	Content type: text/html
	Crawling...
	Downloading..
	Downloading completed
	Harvesting links...
harvestLinks
Externals count: 28
	Harvesting links completed
	Crawling completed - 10 links found
Crawling started    http://www.100ms.ru/
===============================================================================
Depth : 1
===============================================================================
[1]------------------------------------------
Checking Link: http://www.100ms.ru/ ...
Skipped Error Url: http://www.100ms.ru/
Crawling started    http://www.100telegek.ru/
===============================================================================
Depth : 1
===============================================================================
[1]------------------------------------------
Checking Link: http://www.100telegek.ru/ ...
Skipped Error Url: http://www.100telegek.ru/
Crawling started    http://www.100vizitok.ru/
===============================================================================
Depth : 1
===============================================================================
[1]------------------------------------------
Checking Link: http://www.100vizitok.ru/ ...
	Content type: text/html
	Crawling...
	Downloading..
	Downloading completed
	Harvesting links...
harvestLinks
Externals count: 63
	Harvesting links completed
	Crawling completed - 59 links found
===============================================================================
Depth : 0
===============================================================================
[1]------------------------------------------
Checking Link: http://www.100vizitok.ru//bumaga_fedrigoni/ ...
	Content type: text/html
	Crawling...
	Downloading..
	Downloading completed
	Harvesting links...
harvestLinks
Externals count: 75
	Harvesting links completed
	Crawling completed - 71 links found
[2]------------------------------------------
Checking Link: http://www.100vizitok.ru//Colorplan/ ...
	Content type: text/html
	Crawling...
	Downloading..
	Downloading completed
	Harvesting links...
harvestLinks
Externals count: 62
	Harvesting links completed
	Crawling completed - 57 links found
[3]------------------------------------------
Checking Link: http://www.100vizitok.ru//novogodnie_otkritki/ ...
	Content type: text/html
	Crawling...
	Downloading..
	Downloading completed
	Harvesting links...
harvestLinks
Externals count: 62
	Harvesting links completed
	Crawling completed - 71 links found
[4]------------------------------------------
Checking Link: http://www.100vizitok.ru//eco_vizitki/ ...
	Content type: text/html
	Crawling...
	Downloading..
	Downloading completed
	Harvesting links...
harvestLinks
Externals count: 63
	Harvesting links completed
	Crawling completed - 57 links found
[5]------------------------------------------
Checking Link: http://www.100vizitok.ru//original/ ...
	Content type: text/html
	Crawling...
	Downloading..
	Downloading completed
	Harvesting links...
harvestLinks
Externals count: 85
	Harvesting links completed
	Crawling completed - 77 links found
[6]------------------------------------------
Checking Link: http://www.100vizitok.ru//aromats/ ...
	Content type: text/html
	Crawling...
	Downloading..
	Downloading completed
	Harvesting links...
harvestLinks
Externals count: 74
	Harvesting links completed
	Crawling completed - 64 links found
[7]------------------------------------------
Checking Link: http://www.100vizitok.ru//     ...
Crawling started    http://www.100bumag.ru/
===============================================================================
Depth : 1
===============================================================================
[1]------------------------------------------
Checking Link: http://www.100bumag.ru/ ...
	Content type: text/html
	Crawling...
	Downloading..
	Downloading completed
	Harvesting links...
harvestLinks
Externals count: 39
	Harvesting links completed
	Crawling completed - 36 links found
===============================================================================
Depth : 0
===============================================================================
[1]------------------------------------------
Checking Link: http://www.100bumag.ru//paper_calendars.html ...
	Content type: text/html
	Crawling...
	Downloading..
	Downloading completed
	Harvesting links...
harvestLinks
Externals count: 63
	Harvesting links completed
	Crawling completed - 59 links found
[2]------------------------------------------
Checking Link: http://www.100bumag.ru//cancel.html ...
	Content type: text/html
	Crawling...
	Downloading..
	Downloading completed
	Harvesting links...
harvestLinks
Externals count: 14
	Harvesting links completed
	Crawling completed - 10 links found
[3]------------------------------------------
Checking Link: http://www.100bumag.ru//index.html ...
	Content type: text/html
	Crawling...
	Downloading..
	Downloading completed
	Harvesting links...
harvestLinks
Externals count: 39
	Harvesting links completed
	Crawling completed - 33 links found
[4]------------------------------------------
Checking Link: http://www.100bumag.ru//color_lenta.html ...
	Content type: text/html
	Crawling...
	Downloading..
	Downloading completed
	Harvesting links...
harvestLinks
Externals count: 29
	Harvesting links completed
	Crawling completed - 22 links found
[5]------------------------------------------
Checking Link: http://www.100bumag.ru//paper_test.html ...
	Content type: text/html
	Crawling...
	Downloading..
	Downloading completed
	Harvesting links...
harvestLinks
Externals count: 63
	Harvesting links completed
	Crawling completed - 56 links found
[6]------------------------------------------
Checking Link: http://www.100bumag.ru//paper_color.html ...
	Content type: text/html
	Crawling...
	Downloading..
	Downloading completed
	Harvesting links...
harvestLinks
Externals count: 63
	Harvesting links completed
	Crawling completed - 55 links found
[7]------------------------------------------
Checking Link: http://www.100bumag.ru//paper_ink.html ...
	Content type: text/html
	Crawling...
	Downloading..
	Downloading completed
	Harvesting links...
harvestLinks
Externals count: 63
	Harvesting links completed
	Crawling completed - 54 links found
[8]------------------------------------------
Checking Link: http://www.100bumag.ru//0937041.html ...
	Content type: text/html
	Crawling...
	Downloading..
	Downloading completed
	Harvesting links...
harvestLinks
Externals count: 70
	Harvesting links completed
	Crawling completed - 65 links found
[9]------------------------------------------
Checking Link: http://www.100bumag.ru//paper_self.html ...
	Content type: text/html
	Crawling...
	Downloading..
	Downloading completed
	Harvesting links...
harvestLinks
Externals count: 63
	Harvesting links completed
	Crawling completed - 53 links found
[10]------------------------------------------
Checking Link: http://www.100bumag.ru//cart_fax.html ...
	Content type: text/html
	Crawling...
	Downloading..
	Downloading completed
	Harvesting links...
harvestLinks
Externals count: 29
	Harvesting links completed
	Crawling completed - 21 links found
[11]------------------------------------------
Checking Link: http://www.100bumag.ru//paper_thermo.html ...
	Content type: text/html
	Crawling...
	Downloading..
	Downloading completed
	Harvesting links...
harvestLinks
Externals count: 63
	Harvesting links completed
	Crawling completed - 52 links found
[12]------------------------------------------
Checking Link: http://www.100bumag.ru//paper_check.html ...
	Content type: text/html
	Crawling...
	Downloading..
	Downloading completed
	Harvesting links...
harvestLinks
Externals count: 63
	Harvesting links completed
	Crawling completed - 51 links found
[13]------------------------------------------
Checking Link: http://www.100bumag.ru//paper_sublimation.html ...
	Content type: text/html
	Crawling...
	Downloading..
	Downloading completed
	Harvesting links...
harvestLinks
Externals count: 63
	Harvesting links completed
	Crawling completed - 50 links found
[14]------------------------------------------
Checking Link: http://www.100bumag.ru//lomond.html ...
	Content type: text/html
	Crawling...
	Downloading..
	Downloading completed
	Harvesting links...
harvestLinks
Externals count: 70
	Harvesting links completed
	Crawling completed - 64 links found
[15]------------------------------------------
Checking Link: http://www.100bumag.ru//paper_wide_solvent.html ...
	Content type: text/html
	Crawling...
	Downloading..
	Downloading completed
	Harvesting links...
harvestLinks
Externals count: 63
	Harvesting links completed
	Crawling completed - 49 links found
[16]------------------------------------------
Checking Link: http://www.100bumag.ru//contacts.html ...
	Content type: text/html
	Crawling...
	Downloading..
	Downloading completed
	Harvesting links...
harvestLinks
Externals count: 14
	Harvesting links completed
	Crawling completed - 8 links found
[17]------------------------------------------
Checking Link: http://www.100bumag.ru/cartriges.html ...
	Content type: text/html
	Crawling...
	Downloading..
	Downloading completed
	Harvesting links...
harvestLinks
Externals count: 28
	Harvesting links completed
	Crawling completed - 20 links found
[18]------------------------------------------
Checking Link: http://www.100bumag.ru//paper.html ...
	Content type: text/html
	Crawling...
	Downloading..
	Downloading completed
	Harvesting links...
harvestLinks
Externals count: 63
	Harvesting links completed
	Crawling completed - 47 links found
[19]------------------------------------------
Checking Link: http://www.100bumag.ru//film_laminir.html ...
	Content type: text/html
	Crawling...
	Downloading..
	Downloading completed
	Harvesting links...
harvestLinks
Externals count: 63
	Harvesting links completed
	Crawling completed - 46 links found
[20]------------------------------------------
Checking Link: http://www.100bumag.ru//cart_matr.html ...
	Content type: text/html
	Crawling...
	Downloading..
	Downloading completed
	Harvesting links...
harvestLinks
Externals count: 28
	Harvesting links completed
	Crawling completed - 18 links found
[21]------------------------------------------
Checking Link: http://www.100bumag.ru//mailto:100bumag@100bumag.ru ...
Skipped Error Url: http://www.100bumag.ru//mailto:100bumag@100bumag.ru
[22]------------------------------------------
Checking Link: http://www.100bumag.ru//paper_laser.html ...
	Content type: text/html
	Crawling...
	Downloading..
	Downloading completed
	Harvesting links...
harvestLinks
Externals count: 63
	Harvesting links completed
	Crawling completed - 45 links found
[23]------------------------------------------
Checking Link: http://www.100bumag.ru//cartridge_laser.html ...
	Content type: text/html
	Crawling...
	Downloading..
	Downloading completed
	Harvesting links...
harvestLinks
Externals count: 28
	Harvesting links completed
	Crawling completed - 17 links found
[24]------------------------------------------
Checking Link: http://www.100bumag.ru//about.html ...
	Content type: text/html
	Crawling...
	Downloading..
	Downloading completed
	Harvesting links...
harvestLinks
Externals count: 38
	Harvesting links completed
	Crawling completed - 30 links found
[25]------------------------------------------
Checking Link: http://www.100bumag.ru//mailto:serg@100bumag.ru ...
Skipped Error Url: http://www.100bumag.ru//mailto:serg@100bumag.ru
[26]------------------------------------------
Checking Link: http://www.100bumag.ru//ink_lomond.html ...
	Content type: text/html
	Crawling...
	Downloading..
	Downloading completed
	Harvesting links...
harvestLinks
Externals count: 28
	Harvesting links completed
	Crawling completed - 15 links found
[27]------------------------------------------
Checking Link: http://www.100bumag.ru//paper_plotter.html ...
	Content type: text/html
	Crawling...
	Downloading..
	Downloading completed
	Harvesting links...
harvestLinks
Externals count: 63
	Harvesting links completed
	Crawling completed - 43 links found
[28]------------------------------------------
Checking Link: http://www.100bumag.ru//toner.html ...
	Content type: text/html
	Crawling...
	Downloading..
	Downloading completed
	Harvesting links...
harvestLinks
Externals count: 28
	Harvesting links completed
	Crawling completed - 14 links found
[29]------------------------------------------
Checking Link: http://www.100bumag.ru//may.html ...
	Content type: text/html
	Crawling...
	Downloading..
	Downloading completed
	Harvesting links...
harvestLinks
Externals count: 70
	Harvesting links completed
	Crawling completed - 59 links found
[30]------------------------------------------
Checking Link: http://www.100bumag.ru//paper_office.html ...
	Content type: text/html
	Crawling...
	Downloading..
	Downloading completed
	Harvesting links...
harvestLinks
Externals count: 63
	Harvesting links completed
	Crawling completed - 42 links found
[31]------------------------------------------
Checking Link: http://www.100bumag.ru//film_lamin.html ...
	Content type: text/html
	Crawling...
	Downloading..
	Downloading completed
	Harvesting links...
harvestLinks
Externals count: 63
	Harvesting links completed
	Crawling completed - 41 links found
[32]------------------------------------------
Checking Link: http://www.100bumag.ru// ...
	Content type: text/html
	Crawling...
	Downloading..
	Downloading completed
	Harvesting links...
harvestLinks
Externals count: 39
	Harvesting links completed
	Crawling completed - 6 links found
[33]------------------------------------------
Checking Link: http://www.100bumag.ru//cartriges.html ...
	Content type: text/html
	Crawling...
	Downloading..
	Downloading completed
	Harvesting links...
harvestLinks
Externals count: 28
	Harvesting links completed
	Crawling completed - 12 links found
[34]------------------------------------------
Checking Link: http://www.100bumag.ru//cart_cass.html ...
	Content type: text/html
	Crawling...
	Downloading..
	Downloading completed
	Harvesting links...
harvestLinks
Externals count: 28
	Harvesting links completed
	Crawling completed - 11 links found
[35]------------------------------------------
Checking Link: http://www.100bumag.ru//news.html ...
	Content type: text/html
	Crawling...
	Downloading..
	Downloading completed
	Harvesting links...
harvestLinks
Externals count: 70
	Harvesting links completed
	Crawling completed - 57 links found
[36]------------------------------------------
Checking Link: http://www.100bumag.ru//cart_str.html ...
	Content type: text/html
	Crawling...
	Downloading..
	Downloading completed
	Harvesting links...
harvestLinks
Externals count: 28
	Harvesting links completed
	Crawling completed - 10 links found
Crawling started    http://www.100bumag.ru/
===============================================================================
Depth : 1
===============================================================================
[1]------------------------------------------
Checking Link: http://www.100bumag.ru/ ...
	Content type: text/html
	Crawling...
	Downloading..
	Downloading completed
	Harvesting links...
harvestLinks
Externals count: 39
	Harvesting links completed
	Crawling completed - 36 links found
===============================================================================
Depth : 0
===============================================================================
[1]------------------------------------------
Checking Link: http://www.100bumag.ru//paper_calendars.html ...
	Content type: text/html
	Crawling...
	Downloading..
	Downloading completed
	Harvesting links...
harvestLinks
Externals count: 63
	Harvesting links completed
	Crawling completed - 59 links found
[2]------------------------------------------
Checking Link: http://www.100bumag.ru//cancel.html ...
	Content type: text/html
	Crawling...
	Downloading..
	Downloading completed
	Harvesting links...
harvestLinks
Externals count: 14
	Harvesting links completed
	Crawling completed - 10 links found
[3]------------------------------------------
Checking Link: http://www.100bumag.ru//index.html ...
	Content type: text/html
	Crawling...
	Downloading..
	Downloading completed
	Harvesting links...
harvestLinks
Externals count: 39
	Harvesting links completed
	Crawling completed - 33 links found
[4]------------------------------------------
Checking Link: http://www.100bumag.ru//color_lenta.html ...
	Content type: text/html
	Crawling...
	Downloading..
	Downloading completed
	Harvesting links...
harvestLinks
Externals count: 29
	Harvesting links completed
	Crawling completed - 22 links found
[5]------------------------------------------
Checking Link: http://www.100bumag.ru//paper_test.html ...
	Content type: text/html
	Crawling...
	Downloading..
	Downloading completed
	Harvesting links...
harvestLinks
Externals count: 63
	Harvesting links completed
	Crawling completed - 56 links found
[6]------------------------------------------
Checking Link: http://www.100bumag.ru//paper_color.html ...
	Content type: text/html
	Crawling...
	Downloading..
	Downloading completed
	Harvesting links...
harvestLinks
Externals count: 63
	Harvesting links completed
	Crawling completed - 55 links found
[7]------------------------------------------
Checking Link: http://www.100bumag.ru//paper_ink.html ...
	Content type: text/html
	Crawling...
	Downloading..
	Downloading completed
	Harvesting links...
harvestLinks
Externals count: 63
	Harvesting links completed
	Crawling completed - 54 links found
[8]------------------------------------------
Checking Link: http://www.100bumag.ru//0937041.html ...
	Content type: text/html
	Crawling...
	Downloading..
	Downloading completed
	Harvesting links...
harvestLinks
Externals count: 70
	Harvesting links completed
	Crawling completed - 65 links found
[9]------------------------------------------
Checking Link: http://www.100bumag.ru//paper_self.html ...
	Content type: text/html
	Crawling...
	Downloading..
	Downloading completed
	Harvesting links...
harvestLinks
Externals count: 63
	Harvesting links completed
	Crawling completed - 53 links found
[10]------------------------------------------
Checking Link: http://www.100bumag.ru//cart_fax.html ...
	Content type: text/html
	Crawling...
	Downloading..
	Downloading completed
	Harvesting links...
harvestLinks
Externals count: 29
	Harvesting links completed
	Crawling completed - 21 links found
[11]------------------------------------------
Checking Link: http://www.100bumag.ru//paper_thermo.html ...
	Content type: text/html
	Crawling...
	Downloading..
	Downloading completed
	Harvesting links...
harvestLinks
Externals count: 63
	Harvesting links completed
	Crawling completed - 52 links found
[12]------------------------------------------
Checking Link: http://www.100bumag.ru//paper_check.html ...
	Content type: text/html
	Crawling...
	Downloading..
	Downloading completed
	Harvesting links...
harvestLinks
Externals count: 63
	Harvesting links completed
	Crawling completed - 51 links found
[13]------------------------------------------
Checking Link: http://www.100bumag.ru//paper_sublimation.html ...
	Content type: text/html
	Crawling...
	Downloading..
	Downloading completed
	Harvesting links...
harvestLinks
Externals count: 63
	Harvesting links completed
	Crawling completed - 50 links found
[14]------------------------------------------
Checking Link: http://www.100bumag.ru//lomond.html ...
	Content type: text/html
	Crawling...
	Downloading..
	Downloading completed
	Harvesting links...
harvestLinks
Externals count: 70
	Harvesting links completed
	Crawling completed - 64 links found
[15]------------------------------------------
Checking Link: http://www.100bumag.ru//paper_wide_solvent.html ...
	Content type: text/html
	Crawling...
	Downloading..
	Downloading completed
	Harvesting links...
harvestLinks
Externals count: 63
	Harvesting links completed
	Crawling completed - 49 links found
[16]------------------------------------------
Checking Link: http://www.100bumag.ru//contacts.html ...
	Content type: text/html
	Crawling...
	Downloading..
	Downloading completed
	Harvesting links...
harvestLinks
Externals count: 14
	Harvesting links completed
	Crawling completed - 8 links found
[17]------------------------------------------
Checking Link: http://www.100bumag.ru/cartriges.html ...
	Content type: text/html
	Crawling...
	Downloading..
	Downloading completed
	Harvesting links...
harvestLinks
Externals count: 28
	Harvesting links completed
	Crawling completed - 20 links found
[18]------------------------------------------
Checking Link: http://www.100bumag.ru//paper.html ...
	Content type: text/html
	Crawling...
	Downloading..
	Downloading completed
	Harvesting links...
harvestLinks
Externals count: 63
	Harvesting links completed
	Crawling completed - 47 links found
[19]------------------------------------------
Checking Link: http://www.100bumag.ru//film_laminir.html ...
	Content type: text/html
	Crawling...
	Downloading..
	Downloading completed
	Harvesting links...
harvestLinks
Externals count: 63
	Harvesting links completed
	Crawling completed - 46 links found
[20]------------------------------------------
Checking Link: http://www.100bumag.ru//cart_matr.html ...
	Content type: text/html
	Crawling...
	Downloading..
	Downloading completed
	Harvesting links...
harvestLinks
Externals count: 28
	Harvesting links completed
	Crawling completed - 18 links found
[21]------------------------------------------
Checking Link: http://www.100bumag.ru//mailto:100bumag@100bumag.ru ...
Skipped Error Url: http://www.100bumag.ru//mailto:100bumag@100bumag.ru
[22]------------------------------------------
Checking Link: http://www.100bumag.ru//paper_laser.html ...
	Content type: text/html
	Crawling...
	Downloading..
	Downloading completed
	Harvesting links...
harvestLinks
Externals count: 63
	Harvesting links completed
	Crawling completed - 45 links found
[23]------------------------------------------
Checking Link: http://www.100bumag.ru//cartridge_laser.html ...
	Content type: text/html
	Crawling...
	Downloading..
	Downloading completed
	Harvesting links...
harvestLinks
Externals count: 28
	Harvesting links completed
	Crawling completed - 17 links found
[24]------------------------------------------
Checking Link: http://www.100bumag.ru//about.html ...
	Content type: text/html
	Crawling...
	Downloading..
	Downloading completed
	Harvesting links...
harvestLinks
Externals count: 38
	Harvesting links completed
	Crawling completed - 30 links found
[25]------------------------------------------
Checking Link: http://www.100bumag.ru//mailto:serg@100bumag.ru ...
Skipped Error Url: http://www.100bumag.ru//mailto:serg@100bumag.ru
[26]------------------------------------------
Checking Link: http://www.100bumag.ru//ink_lomond.html ...
	Content type: text/html
	Crawling...
	Downloading..
	Downloading completed
	Harvesting links...
harvestLinks
Externals count: 28
	Harvesting links completed
	Crawling completed - 15 links found
[27]------------------------------------------
Checking Link: http://www.100bumag.ru//paper_plotter.html ...
	Content type: text/html
	Crawling...
	Downloading..
	Downloading completed
	Harvesting links...
harvestLinks
Externals count: 63
	Harvesting links completed
	Crawling completed - 43 links found
[28]------------------------------------------
Checking Link: http://www.100bumag.ru//toner.html ...
	Content type: text/html
	Crawling...
	Downloading..
	Downloading completed
	Harvesting links...
harvestLinks
Externals count: 28
	Harvesting links completed
	Crawling completed - 14 links found
[29]------------------------------------------
Checking Link: http://www.100bumag.ru//may.html ...
	Content type: text/html
	Crawling...
	Downloading..
	Downloading completed
	Harvesting links...
harvestLinks
Externals count: 70
	Harvesting links completed
	Crawling completed - 59 links found
[30]------------------------------------------
Checking Link: http://www.100bumag.ru//paper_office.html ...
	Content type: text/html
	Crawling...
	Downloading..
	Downloading completed
	Harvesting links...
harvestLinks
Externals count: 63
	Harvesting links completed
	Crawling completed - 42 links found
[31]------------------------------------------
Checking Link: http://www.100bumag.ru//film_lamin.html ...
	Content type: text/html
	Crawling...
	Downloading..
	Downloading completed
	Harvesting links...
harvestLinks
Externals count: 63
	Harvesting links completed
	Crawling completed - 41 links found
[32]------------------------------------------
Checking Link: http://www.100bumag.ru// ...
	Content type: text/html
	Crawling...
	Downloading..
	Downloading completed
	Harvesting links...
harvestLinks
Externals count: 39
	Harvesting links completed
	Crawling completed - 6 links found
[33]------------------------------------------
Checking Link: http://www.100bumag.ru//cartriges.html ...
	Content type: text/html
	Crawling...
	Downloading..
	Downloading completed
	Harvesting links...
harvestLinks
Externals count: 28
	Harvesting links completed
	Crawling completed - 12 links found
[34]------------------------------------------
Checking Link: http://www.100bumag.ru//cart_cass.html ...
	Content type: text/html
	Crawling...
	Downloading..
	Downloading completed
	Harvesting links...
harvestLinks
Externals count: 28
	Harvesting links completed
	Crawling completed - 11 links found
[35]------------------------------------------
Checking Link: http://www.100bumag.ru//news.html ...
	Content type: text/html
	Crawling...
	Downloading..
	Downloading completed
	Harvesting links...
harvestLinks
Externals count: 70
	Harvesting links completed
	Crawling completed - 57 links found
[36]------------------------------------------
Checking Link: http://www.100bumag.ru//cart_str.html ...
	Content type: text/html
	Crawling...
	Downloading..
	Downloading completed
	Harvesting links...
harvestLinks
Externals count: 28
	Harvesting links completed
	Crawling completed - 10 links found
Crawling started    http://www.100bumag.ru/
===============================================================================
Depth : 1
===============================================================================
[1]------------------------------------------
Checking Link: http://www.100bumag.ru/ ...
	Content type: text/html
	Crawling...
	Downloading..
	Downloading completed
	Harvesting links...
harvestLinks
Externals count: 39
	Harvesting links completed
	Crawling completed - 36 links found
===============================================================================
Depth : 0
===============================================================================
[1]------------------------------------------
Checking Link: http://www.100bumag.ru//paper_calendars.html ...
	Content type: text/html
	Crawling...
	Downloading..
	Downloading completed
	Harvesting links...
harvestLinks
Externals count: 63
	Harvesting links completed
	Crawling completed - 59 links found
[2]------------------------------------------
Checking Link: http://www.100bumag.ru//cancel.html ...
	Content type: text/html
	Crawling...
	Downloading..
	Downloading completed
	Harvesting links...
harvestLinks
Externals count: 14
	Harvesting links completed
	Crawling completed - 10 links found
[3]------------------------------------------
Checking Link: http://www.100bumag.ru//index.html ...
	Content type: text/html
	Crawling...
	Downloading..
	Downloading completed
	Harvesting links...
harvestLinks
Externals count: 39
	Harvesting links completed
	Crawling completed - 33 links found
[4]------------------------------------------
Checking Link: http://www.100bumag.ru//color_lenta.html ...
	Content type: text/html
	Crawling...
	Downloading..
	Downloading completed
	Harvesting links...
harvestLinks
Externals count: 29
	Harvesting links completed
	Crawling completed - 22 links found
[5]------------------------------------------
Checking Link: http://www.100bumag.ru//paper_test.html ...
	Content type: text/html
	Crawling...
	Downloading..
	Downloading completed
	Harvesting links...
harvestLinks
Externals count: 63
	Harvesting links completed
	Crawling completed - 56 links found
[6]------------------------------------------
Checking Link: http://www.100bumag.ru//paper_color.html ...
	Content type: text/html
	Crawling...
	Downloading..
	Downloading completed
	Harvesting links...
harvestLinks
Externals count: 63
	Harvesting links completed
	Crawling completed - 55 links found
[7]------------------------------------------
Checking Link: http://www.100bumag.ru//paper_ink.html ...
	Content type: text/html
	Crawling...
	Downloading..
	Downloading completed
	Harvesting links...
harvestLinks
Externals count: 63
	Harvesting links completed
	Crawling completed - 54 links found
[8]------------------------------------------
Checking Link: http://www.100bumag.ru//0937041.html ...
	Content type: text/html
	Crawling...
	Downloading..
	Downloading completed
	Harvesting links...
harvestLinks
Externals count: 70
	Harvesting links completed
	Crawling completed - 65 links found
[9]------------------------------------------
Checking Link: http://www.100bumag.ru//paper_self.html ...
	Content type: text/html
	Crawling...
	Downloading..
	Downloading completed
	Harvesting links...
harvestLinks
Externals count: 63
	Harvesting links completed
	Crawling completed - 53 links found
[10]------------------------------------------
Checking Link: http://www.100bumag.ru//cart_fax.html ...
	Content type: text/html
	Crawling...
	Downloading..
	Downloading completed
	Harvesting links...
harvestLinks
Externals count: 29
	Harvesting links completed
	Crawling completed - 21 links found
[11]------------------------------------------
Checking Link: http://www.100bumag.ru//paper_thermo.html ...
	Content type: text/html
	Crawling...
	Downloading..
	Downloading completed
	Harvesting links...
harvestLinks
Externals count: 63
	Harvesting links completed
	Crawling completed - 52 links found
[12]------------------------------------------
Checking Link: http://www.100bumag.ru//paper_check.html ...
	Content type: text/html
	Crawling...
	Downloading..
	Downloading completed
	Harvesting links...
harvestLinks
Externals count: 63
	Harvesting links completed
	Crawling completed - 51 links found
[13]------------------------------------------
Checking Link: http://www.100bumag.ru//paper_sublimation.html ...
	Content type: text/html
	Crawling...
	Downloading..
	Downloading completed
	Harvesting links...
harvestLinks
Externals count: 63
	Harvesting links completed
	Crawling completed - 50 links found
[14]------------------------------------------
Checking Link: http://www.100bumag.ru//lomond.html ...
	Content type: text/html
	Crawling...
	Downloading..
	Downloading completed
	Harvesting links...
harvestLinks
Externals count: 70
	Harvesting links completed
	Crawling completed - 64 links found
[15]------------------------------------------
Checking Link: http://www.100bumag.ru//paper_wide_solvent.html ...
	Content type: text/html
	Crawling...
	Downloading..
	Downloading completed
	Harvesting links...
harvestLinks
Externals count: 63
	Harvesting links completed
	Crawling completed - 49 links found
[16]------------------------------------------
Checking Link: http://www.100bumag.ru//contacts.html ...
	Content type: text/html
	Crawling...
	Downloading..
	Downloading completed
	Harvesting links...
harvestLinks
Externals count: 14
	Harvesting links completed
	Crawling completed - 8 links found
[17]------------------------------------------
Checking Link: http://www.100bumag.ru/cartriges.html ...
	Content type: text/html
	Crawling...
	Downloading..
	Downloading completed
	Harvesting links...
harvestLinks
Externals count: 28
	Harvesting links completed
	Crawling completed - 20 links found
[18]------------------------------------------
Checking Link: http://www.100bumag.ru//paper.html ...
	Content type: text/html
	Crawling...
	Downloading..
	Downloading completed
	Harvesting links...
harvestLinks
Externals count: 63
	Harvesting links completed
	Crawling completed - 47 links found
[19]------------------------------------------
Checking Link: http://www.100bumag.ru//film_laminir.html ...
	Content type: text/html
	Crawling...
	Downloading..
	Downloading completed
	Harvesting links...
harvestLinks
Externals count: 63
	Harvesting links completed
	Crawling completed - 46 links found
[20]------------------------------------------
Checking Link: http://www.100bumag.ru//cart_matr.html ...
	Content type: text/html
	Crawling...
	Downloading..
	Downloading completed
	Harvesting links...
harvestLinks
Externals count: 28
	Harvesting links completed
	Crawling completed - 18 links found
[21]------------------------------------------
Checking Link: http://www.100bumag.ru//mailto:100bumag@100bumag.ru ...
Skipped Error Url: http://www.100bumag.ru//mailto:100bumag@100bumag.ru
[22]------------------------------------------
Checking Link: http://www.100bumag.ru//paper_laser.html ...
	Content type: text/html
	Crawling...
	Downloading..
	Downloading completed
	Harvesting links...
harvestLinks
Externals count: 63
	Harvesting links completed
	Crawling completed - 45 links found
[23]------------------------------------------
Checking Link: http://www.100bumag.ru//cartridge_laser.html ...
	Content type: text/html
	Crawling...
	Downloading..
	Downloading completed
	Harvesting links...
harvestLinks
Externals count: 28
	Harvesting links completed
	Crawling completed - 17 links found
[24]------------------------------------------
Checking Link: http://www.100bumag.ru//about.html ...
	Content type: text/html
	Crawling...
	Downloading..
	Downloading completed
	Harvesting links...
harvestLinks
Externals count: 38
	Harvesting links completed
	Crawling completed - 30 links found
[25]------------------------------------------
Checking Link: http://www.100bumag.ru//mailto:serg@100bumag.ru ...
Skipped Error Url: http://www.100bumag.ru//mailto:serg@100bumag.ru
[26]------------------------------------------
Checking Link: http://www.100bumag.ru//ink_lomond.html ...
	Content type: text/html
	Crawling...
	Downloading..
	Downloading completed
	Harvesting links...
harvestLinks
Externals count: 28
	Harvesting links completed
	Crawling completed - 15 links found
[27]------------------------------------------
Checking Link: http://www.100bumag.ru//paper_plotter.html ...
	Content type: text/html
	Crawling...
	Downloading..
	Downloading completed
	Harvesting links...
harvestLinks
Externals count: 63
	Harvesting links completed
	Crawling completed - 43 links found
[28]------------------------------------------
Checking Link: http://www.100bumag.ru//toner.html ...
	Content type: text/html
	Crawling...
	Downloading..
	Downloading completed
	Harvesting links...
harvestLinks
Externals count: 28
	Harvesting links completed
	Crawling completed - 14 links found
[29]------------------------------------------
Checking Link: http://www.100bumag.ru//may.html ...
	Content type: text/html
	Crawling...
	Downloading..
	Downloading completed
	Harvesting links...
harvestLinks
Externals count: 70
	Harvesting links completed
	Crawling completed - 59 links found
[30]------------------------------------------
Checking Link: http://www.100bumag.ru//paper_office.html ...
	Content type: text/html
	Crawling...
	Downloading..
	Downloading completed
	Harvesting links...
harvestLinks
Externals count: 63
	Harvesting links completed
	Crawling completed - 42 links found
[31]------------------------------------------
Checking Link: http://www.100bumag.ru//film_lamin.html ...
	Content type: text/html
	Crawling...
	Downloading..
	Downloading completed
	Harvesting links...
harvestLinks
Externals count: 63
	Harvesting links completed
	Crawling completed - 41 links found
[32]------------------------------------------
Checking Link: http://www.100bumag.ru// ...
	Content type: text/html
	Crawling...
	Downloading..
	Downloading completed
	Harvesting links...
harvestLinks
Externals count: 39
	Harvesting links completed
	Crawling completed - 6 links found
[33]------------------------------------------
Checking Link: http://www.100bumag.ru//cartriges.html ...
	Content type: text/html
	Crawling...
	Downloading..
	Downloading completed
	Harvesting links...
harvestLinks
Externals count: 28
	Harvesting links completed
	Crawling completed - 12 links found
[34]------------------------------------------
Checking Link: http://www.100bumag.ru//cart_cass.html ...
	Content type: text/html
	Crawling...
	Downloading..
	Downloading completed
	Harvesting links...
harvestLinks
Externals count: 28
	Harvesting links completed
	Crawling completed - 11 links found
[35]------------------------------------------
Checking Link: http://www.100bumag.ru//news.html ...
	Content type: text/html
	Crawling...
	Downloading..
	Downloading completed
	Harvesting links...
harvestLinks
Externals count: 70
	Harvesting links completed
	Crawling completed - 57 links found
[36]------------------------------------------
Checking Link: http://www.100bumag.ru//cart_str.html ...
	Content type: text/html
	Crawling...
	Downloading..
	Downloading completed
	Harvesting links...
harvestLinks
Externals count: 28
	Harvesting links completed
	Crawling completed - 10 links found
Crawling started    http://www.100ms.ru/
===============================================================================
Depth : 1
===============================================================================
[1]------------------------------------------
Checking Link: http://www.100ms.ru/ ...
Skipped Error Url: http://www.100ms.ru/
Crawling started    http://www.100telegek.ru/
===============================================================================
Depth : 1
===============================================================================
[1]------------------------------------------
Checking Link: http://www.100telegek.ru/ ...
Skipped Error Url: http://www.100telegek.ru/
Crawling started    http://www.100vizitok.ru/
===============================================================================
Depth : 1
===============================================================================
[1]------------------------------------------
Checking Link: http://www.100vizitok.ru/ ...
	Content type: text/html
	Crawling...
	Downloading..
	Downloading completed
	Harvesting links...
harvestLinks
Externals count: 63
	Harvesting links completed
	Crawling completed - 59 links found
===============================================================================
Depth : 0
===============================================================================
[1]------------------------------------------
Checking Link: http://www.100vizitok.ru//bumaga_fedrigoni/ ...
	Content type: text/html
	Crawling...
	Downloading..
	Downloading completed
	Harvesting links...
harvestLinks
Externals count: 75
	Harvesting links completed
	Crawling completed - 71 links found
[2]------------------------------------------
Checking Link: http://www.100vizitok.ru//Colorplan/ ...
	Content type: text/html
	Crawling...
	Downloading..
	Downloading completed
	Harvesting links...
harvestLinks
Externals count: 62
	Harvesting links completed
	Crawling completed - 57 links found
[3]------------------------------------------
Checking Link: http://www.100vizitok.ru//novogodnie_otkritki/ ...
	Content type: text/html
	Crawling...
	Downloading..
	Downloading completed
	Harvesting links...
harvestLinks
Externals count: 62
	Harvesting links completed
	Crawling completed - 71 links found
[4]------------------------------------------
Checking Link: http://www.100vizitok.ru//eco_vizitki/ ...
	Content type: text/html
	Crawling...
	Downloading..
	Downloading completed
	Harvesting links...
harvestLinks
Externals count: 63
	Harvesting links completed
	Crawling completed - 57 links found
[5]------------------------------------------
Checking Link: http://www.100vizitok.ru//original/ ...
	Content type: text/html
	Crawling...
	Downloading..
	Downloading completed
	Harvesting links...
harvestLinks
Externals count: 85
	Harvesting links completed
	Crawling completed - 77 links found
[6]------------------------------------------
Checking Link: http://www.100vizitok.ru//aromats/ ...
	Content type: text/html
	Crawling...
	Downloading..
	Downloading completed
	Harvesting links...
harvestLinks
Externals count: 74
	Harvesting links completed
	Crawling completed - 64 links found
1   2   3   4   5   6   7   8   9   11   12   13   14   15   16   17   18   19   21   22   23   24   25   26   27   28   29   31   32   33   34   35   36   37   38   39   41   42   43  
